{
  "$schema": "http://json-schema.org/draft-07/schema",
  "type": "array",
  "minItems": 1,
  "version": "1.0.0",
  "items": {
    "oneOf": [
      {
        "$ref": "#/definitions/individualBadge"
      },
      {
        "$ref": "#/definitions/acaBadge"
      },
      {
        "$ref": "#/definitions/rankingBadge"
      }
    ],
    "default": {}
  },
  "definitions": {
    "individualBadge": {
      "type": "object",
      "default": {},
      "required": [
        "name",
        "badgeList",
        "type"
      ],
      "properties": {
        "type": {
          "enum":[ "individual"]
        },
        "id": {
          "type": "string"
        },
        "aca": {
          "type": "string"
        },
        "name": {
          "$ref": "#/definitions/name"
        },
        "levelsContainer":{
          "type": "boolean",
          "default": false
        },
        "logo": {
          "$ref": "#/definitions/logo"
        },
        "badgeList": {
          "$ref": "#/definitions/badgeList"
        }
      },
      "additionalProperties": false
    },
    "acaBadge": {
      "type": "object",
      "default": {},
      "required": [
        "name",
        "badgeList",
        "type",
        "timeframe"
      ],
      "properties": {
        "type": {
          "enum":[ "aca"]
        },
        "id": {
          "type": "string"
        },
        "name": {
          "$ref": "#/definitions/name"
        },
        "aca": {
          "type": "string"
        },
        "logo": {
          "$ref": "#/definitions/logo"
        },
        "badgeList": {
          "$ref": "#/definitions/badgeList"
        },
        "timeframe": {
          "$ref": "#/definitions/timeframe"
        }
      },
      "additionalProperties": false
    },
    "rankingBadge": {
      "type": "object",
      "default": {},
      "required": [
        "name",
        "badgeList",
        "variable",
        "type",
        "timeframe"
      ],
      "properties": {
        "type": {
          "enum":[ "ranking"]
        },
        "id": {
          "type": "string"
        },
        "active": {
          "type": "boolean"
        },
        "name": {
          "$ref": "#/definitions/name"
        },
        "aca": {
          "type": "string"
        },
        "logo": {
          "$ref": "#/definitions/logo"
        },
        "context": {
          "$ref": "#/definitions/context"
        },
        "variable": {
          "type": "string"
        },
        "timeframe": {
          "$ref": "#/definitions/timeframe"
        },
        "badgeList": {
          "type": "array",
          "minItems": 1,
          "items": {
            "type": "object",
            "required": [
              "name",
              "position"
            ],
            "properties": {
              "id": {
                "type": "string"
              },
              "name": {
                "$ref": "#/definitions/name"
              },
              "active": {
                "type": "boolean"
              },
              "position": {
                "type": "integer"
              },
              "logo": {
                "type": "string"
              }
            },
            "additionalProperties": false
          }
        }
      },
      "additionalProperties": false
    },
    "name": {
      "type": "string",
      "minLength": 3
    },
    "logo": {
      "type": "string",
      "minLength": 3
    },
    "aca": {
      "type": "array",
      "minItems": 1,
      "items": {
        "type": "string"
      }
    },
    "timeframe": {
      "type": "string",
      "enum": [
        "WEEK",
        "MONTH"
      ]
    },
    "context": {
      "type": "string",
      "default": "INSTANCE",
      "enum": [
        "ACA",
        "INSTANCE"
      ]
    },
    "badgeList": {
      "type": "array",
      "minItems": 1,
      "items": {
        "type": "object",
        "required": [
          "name",
          "preconditions"
        ],
        "properties": {
          "id": {
            "type": "string"
          },
          "active": {
            "type": "boolean"
          },
          "name": {
            "type": "string"
          },
          "logo": {
            "$ref": "#/definitions/logo"
          },
          "preconditions": {
            "type": "object",
            "minProperties": 1,
            "properties": {
              "variables": {
                "type": "array",
                "minItems": 1,
                "items": {
                  "type": "object",
                  "required": [
                    "variable",
                    "threshold"
                  ],
                  "properties": {
                    "variable": {
                      "type": "string"
                    },
                    "threshold": {
                      "type": "number"
                    }
                  }
                }
              },
              "badgeList": {
                "type": "array",
                "minItems": 1,
                "items": {
                  "type": "string"
                }
              }
            }
          }
        },
        "additionalProperties": false
      }
    }
  }
}
